In file included from ./Lista.h:99:0,
                 from ../../../../../../taller2/lista_tests.cpp:2:
./Lista.hpp: In member function ‘void Lista::eliminar(Nat)’:
./Lista.hpp:72:20: warning: comparison between signed and unsigned integer expressions [-Wsign-compare]
     while(posicion != i){
           ~~~~~~~~~^~~~
./Lista.hpp: In member function ‘const int& Lista::iesimo(Nat) const’:
./Lista.hpp:105:20: warning: comparison between signed and unsigned integer expressions [-Wsign-compare]
     while(posicion != i){
           ~~~~~~~~~^~~~
./Lista.hpp: In member function ‘int& Lista::iesimo(Nat)’:
./Lista.hpp:116:20: warning: comparison between signed and unsigned integer expressions [-Wsign-compare]
     while(posicion != i){
           ~~~~~~~~~^~~~
./Lista.hpp: In member function ‘void Lista::mostrar(std::ostream&)’:
./Lista.hpp:128:13: warning: statement has no effect [-Wunused-value]
             o;
             ^
